%YAML 1.1
%TAG !u! tag:unity3d.com,2011:
--- !u!21 &2100000
Material:
  serializedVersion: 8
  m_ObjectHideFlags: 0
  m_CorrespondingSourceObject: {fileID: 0}
  m_PrefabInstance: {fileID: 0}
  m_PrefabAsset: {fileID: 0}
  m_Name: FramePieceMaterial
  m_Shader: {fileID: 4800000, guid: 6c046203321edf34fb092959a05e5b4a, type: 3}
  m_ValidKeywords:
  - _MK_ARTISTIC_PROJECTION_SCREEN_SPACE
  - _MK_ENVIRONMENT_REFLECTIONS_AMBIENT
  - _MK_LIGHT_CEL
  - _MK_OUTLINE_HULL_CLIP
  - _MK_RECEIVE_SHADOWS
  - _MK_SPECULAR_ISOTROPIC
  - _MK_WRAPPED_DIFFUSE
  m_InvalidKeywords:
  - _RECEIVESHADOWS_ON
  - _WRAPPEDLIGHTING_ON
  m_LightmapFlags: 6
  m_EnableInstancingVariants: 0
  m_DoubleSidedGI: 0
  m_CustomRenderQueue: 2000
  stringTagMap:
    IGNOREPROJECTOR: False
    RenderType: Opaque
  disabledShaderPasses: []
  m_SavedProperties:
    serializedVersion: 3
    m_TexEnvs:
    - _AlbedoMap:
        m_Texture: {fileID: 0}
        m_Scale: {x: 1, y: 1}
        m_Offset: {x: 0, y: 0}
    - _BaseMap:
        m_Texture: {fileID: 0}
        m_Scale: {x: 1, y: 1}
        m_Offset: {x: 0, y: 0}
    - _BumpMap:
        m_Texture: {fileID: 0}
        m_Scale: {x: 1, y: 1}
        m_Offset: {x: 0, y: 0}
    - _DetailAlbedoMap:
        m_Texture: {fileID: 0}
        m_Scale: {x: 1, y: 1}
        m_Offset: {x: 0, y: 0}
    - _DetailMask:
        m_Texture: {fileID: 0}
        m_Scale: {x: 1, y: 1}
        m_Offset: {x: 0, y: 0}
    - _DetailNormalMap:
        m_Texture: {fileID: 0}
        m_Scale: {x: 1, y: 1}
        m_Offset: {x: 0, y: 0}
    - _DiffuseRamp:
        m_Texture: {fileID: 0}
        m_Scale: {x: 1, y: 1}
        m_Offset: {x: 0, y: 0}
    - _DissolveBorderRamp:
        m_Texture: {fileID: 0}
        m_Scale: {x: 1, y: 1}
        m_Offset: {x: 0, y: 0}
    - _DissolveMap:
        m_Texture: {fileID: 0}
        m_Scale: {x: 1, y: 1}
        m_Offset: {x: 0, y: 0}
    - _DrawnMap:
        m_Texture: {fileID: 0}
        m_Scale: {x: 1, y: 1}
        m_Offset: {x: 0, y: 0}
    - _EmissionMap:
        m_Texture: {fileID: 0}
        m_Scale: {x: 1, y: 1}
        m_Offset: {x: 0, y: 0}
    - _GoochRamp:
        m_Texture: {fileID: 0}
        m_Scale: {x: 1, y: 1}
        m_Offset: {x: 0, y: 0}
    - _HatchingBrightMap:
        m_Texture: {fileID: 0}
        m_Scale: {x: 1, y: 1}
        m_Offset: {x: 0, y: 0}
    - _HatchingDarkMap:
        m_Texture: {fileID: 0}
        m_Scale: {x: 1, y: 1}
        m_Offset: {x: 0, y: 0}
    - _IridescenceRamp:
        m_Texture: {fileID: 0}
        m_Scale: {x: 1, y: 1}
        m_Offset: {x: 0, y: 0}
    - _MainTex:
        m_Texture: {fileID: 0}
        m_Scale: {x: 1, y: 1}
        m_Offset: {x: 0, y: 0}
    - _MetallicGlossMap:
        m_Texture: {fileID: 0}
        m_Scale: {x: 1, y: 1}
        m_Offset: {x: 0, y: 0}
    - _NormalMap:
        m_Texture: {fileID: 0}
        m_Scale: {x: 1, y: 1}
        m_Offset: {x: 0, y: 0}
    - _OcclusionMap:
        m_Texture: {fileID: 0}
        m_Scale: {x: 1, y: 1}
        m_Offset: {x: 0, y: 0}
    - _OutlineMap:
        m_Texture: {fileID: 0}
        m_Scale: {x: 1, y: 1}
        m_Offset: {x: 0, y: 0}
    - _ParallaxMap:
        m_Texture: {fileID: 0}
        m_Scale: {x: 1, y: 1}
        m_Offset: {x: 0, y: 0}
    - _RefractionDistortionMap:
        m_Texture: {fileID: 0}
        m_Scale: {x: 1, y: 1}
        m_Offset: {x: 0, y: 0}
    - _RimRamp:
        m_Texture: {fileID: 0}
        m_Scale: {x: 1, y: 1}
        m_Offset: {x: 0, y: 0}
    - _SketchMap:
        m_Texture: {fileID: 0}
        m_Scale: {x: 1, y: 1}
        m_Offset: {x: 0, y: 0}
    - _SpecGlossMap:
        m_Texture: {fileID: 0}
        m_Scale: {x: 1, y: 1}
        m_Offset: {x: 0, y: 0}
    - _SpecularMap:
        m_Texture: {fileID: 0}
        m_Scale: {x: 1, y: 1}
        m_Offset: {x: 0, y: 0}
    - _SpecularRamp:
        m_Texture: {fileID: 0}
        m_Scale: {x: 1, y: 1}
        m_Offset: {x: 0, y: 0}
    - _ThresholdMap:
        m_Texture: {fileID: 0}
        m_Scale: {x: 1, y: 1}
        m_Offset: {x: 0, y: 0}
    - _VertexAnimationMap:
        m_Texture: {fileID: 0}
        m_Scale: {x: 1, y: 1}
        m_Offset: {x: 0, y: 0}
    - unity_Lightmaps:
        m_Texture: {fileID: 0}
        m_Scale: {x: 1, y: 1}
        m_Offset: {x: 0, y: 0}
    - unity_LightmapsInd:
        m_Texture: {fileID: 0}
        m_Scale: {x: 1, y: 1}
        m_Offset: {x: 0, y: 0}
    - unity_ShadowMasks:
        m_Texture: {fileID: 0}
        m_Scale: {x: 1, y: 1}
        m_Offset: {x: 0, y: 0}
    m_Ints: []
    m_Floats:
    - _AdvancedTab: 1
    - _AlphaClip: 0
    - _AlphaClipping: 0
    - _AlphaCutoff: 0.495
    - _Artistic: 0
    - _ArtisticFrequency: 1
    - _ArtisticProjection: 1
    - _Blend: 0
    - _BlendDst: 0
    - _BlendSrc: 1
    - _Brightness: 1
    - _BumpScale: 1
    - _ClearCoatMask: 0
    - _ClearCoatSmoothness: 0
    - _ColorGrading: 0
    - _Contrast: 1
    - _Cull: 2
    - _Cutoff: 0.495
    - _DetailAlbedoMapScale: 1
    - _DetailNormalMapScale: 1
    - _DiffuseSmoothness: 0
    - _DiffuseThresholdOffset: 0.25
    - _Dissolve: 0
    - _DissolveAmount: 0.5
    - _DissolveBorderSize: 0.25
    - _DissolveMapScale: 1
    - _DrawnClampMax: 1
    - _DrawnClampMin: 0
    - _DrawnMapScale: 1
    - _DstBlend: 0
    - _EnvironmentReflections: 1
    - _GlossMapScale: 0
    - _Glossiness: 0
    - _GlossyReflections: 0
    - _GoochRampIntensity: 0.5
    - _HatchingMapScale: 1
    - _IndexOfRefraction: 0
    - _Initialized: 1
    - _InputTab: 1
    - _Iridescence: 0
    - _IridescenceSize: 5
    - _IridescenceSmoothness: 0.5
    - _IridescenceThresholdOffset: 0
    - _Light: 1
    - _LightBands: 4
    - _LightBandsScale: 0.5
    - _LightThreshold: 0
    - _Metallic: 0
    - _NormalMapIntensity: 1
    - _OcclusionStrength: 1
    - _OptionsTab: 1
    - _Outline: 3
    - _OutlineData: 0
    - _OutlineFadeMax: 2
    - _OutlineFadeMin: 0.25
    - _OutlineNoise: 0
    - _OutlineSize: 5
    - _OutlineTab: 0
    - _Parallax: 0.005
    - _QueueOffset: 0
    - _ReceiveShadows: 1
    - _RefractionDistortion: 0.1
    - _RefractionDistortionFade: 0.5
    - _RefractionDistortionMapScale: 1
    - _RefractionTab: 1
    - _RenderFace: 2
    - _RenderPriority: 0
    - _Rim: 0
    - _RimSize: 1
    - _RimSmoothness: 0.5
    - _RimThresholdOffset: 0.25
    - _Saturation: 1
    - _SketchMapScale: 1
    - _Smoothness: 0
    - _SmoothnessTextureChannel: 0
    - _Specular: 1
    - _SpecularHighlights: 1
    - _SpecularIntensity: 1
    - _SpecularSmoothness: 0
    - _SpecularThresholdOffset: 0.25
    - _SrcBlend: 1
    - _Stencil: 1
    - _StencilComp: 8
    - _StencilFail: 0
    - _StencilPass: 0
    - _StencilReadMask: 255
    - _StencilRef: 0
    - _StencilWriteMask: 255
    - _StencilZFail: 0
    - _StylizeTab: 1
    - _Surface: 0
    - _ThresholdMapScale: 1
    - _VertexAnimation: 0
    - _VertexAnimationIntensity: 0.05
    - _VertexAnimationStutter: 0
    - _WorkflowMode: 1
    - _WrappedLighting: 1
    - _ZTest: 4
    - _ZWrite: 1
    m_Colors:
    - _AlbedoColor: {r: 0.9056604, g: 0.5938057, b: 0.5938057, a: 1}
    - _BaseColor: {r: 1, g: 1, b: 1, a: 1}
    - _Color: {r: 1, g: 1, b: 1, a: 1}
    - _DissolveBorderColor: {r: 1, g: 1, b: 1, a: 1}
    - _EmissionColor: {r: 0, g: 0, b: 0, a: 1}
    - _GoochBrightColor: {r: 1, g: 1, b: 1, a: 1}
    - _GoochDarkColor: {r: 0, g: 0, b: 0, a: 1}
    - _IridescenceColor: {r: 1, g: 1, b: 1, a: 0.5}
    - _OutlineColor: {r: 0, g: 0, b: 0, a: 1}
    - _RimBrightColor: {r: 1, g: 1, b: 1, a: 1}
    - _RimColor: {r: 1, g: 1, b: 1, a: 1}
    - _RimDarkColor: {r: 0, g: 0, b: 0, a: 1}
    - _SpecColor: {r: 0.19999996, g: 0.19999996, b: 0.19999996, a: 1}
    - _SpecularColor: {r: 0.46226412, g: 0.3835356, b: 0.2463955, a: 1}
    - _VertexAnimationFrequency: {r: 2.5, g: 2.5, b: 2.5, a: 1}
  m_BuildTextureStacks: []
--- !u!114 &2048227936159743776
MonoBehaviour:
  m_ObjectHideFlags: 11
  m_CorrespondingSourceObject: {fileID: 0}
  m_PrefabInstance: {fileID: 0}
  m_PrefabAsset: {fileID: 0}
  m_GameObject: {fileID: 0}
  m_Enabled: 1
  m_EditorHideFlags: 0
  m_Script: {fileID: 11500000, guid: d0353a89b1f911e48b9e16bdc9f2e058, type: 3}
  m_Name: 
  m_EditorClassIdentifier: 
  version: 5
