%YAML 1.1
%TAG !u! tag:unity3d.com,2011:
--- !u!114 &11400000
MonoBehaviour:
  m_ObjectHideFlags: 0
  m_CorrespondingSourceObject: {fileID: 0}
  m_PrefabInstance: {fileID: 0}
  m_PrefabAsset: {fileID: 0}
  m_GameObject: {fileID: 0}
  m_Enabled: 1
  m_EditorHideFlags: 0
  m_Script: {fileID: 11500000, guid: 95bb5de42a544b649bb836479c496ef1, type: 3}
  m_Name: Console Setting
  m_EditorClassIdentifier: 
  Enabled: 1
  EnabledInDevelopmentBuildOnly: 0
  CopyDebugLogs: 1
  AudioEnabled: 1
  EventSystemEnabled: 0
  ToggleKey: 96
  MaxTitleLength: 3000
  MaxStacktraceLength: 3000
  StacktraceDefaultColor: {r: 0.7830189, g: 0.7830189, b: 0.7830189, a: 1}
  StacktraceFilePathColor: {r: 0.45660377, g: 1, b: 1, a: 1}
  StacktraceCodePathColor: {r: 1, g: 1, b: 1, a: 1}
  DefaultColor: {r: 1, g: 1, b: 1, a: 1}
  ErrorColor: {r: 1, g: 0, b: 0, a: 1}
  WarningColor: {r: 1, g: 0.92156863, b: 0.015686275, a: 1}
  NetworkColor: {r: 0, g: 0.5, b: 1, a: 1}
  ConsoleCanvasPrefab: {fileID: 4602241068131509686, guid: c661a590a35802543860e00046b0c5e3,
    type: 3}
  ErrorMessageIcon: {fileID: 21300000, guid: 28b3a4655c007484094e7de05c4c0aca, type: 3}
  WarningMessageIcon: {fileID: 21300000, guid: c3bb6c0c140a6de418e6be20cac48082, type: 3}
  DefaultMessageIcon: {fileID: 21300000, guid: da3f1e13ca1ae7f478c9b1a43fe699a8, type: 3}
  NetworkMessageIcon: {fileID: 21300000, guid: 18bb51bb219cb034d893e9ab0fc11d2b, type: 3}
